<define-tag pagetitle>DSA-4934-1 intel-microcode</define-tag>
<define-tag report_date>2021-6-26</define-tag>
<define-tag secrefs>CVE-2020-24489 CVE-2020-24511 CVE-2020-24512 CVE-2020-24513</define-tag>
<define-tag packages>intel-microcode</define-tag>
<define-tag isvulnerable>yes</define-tag>
<define-tag fixed>yes</define-tag>
<define-tag fixed-section>no</define-tag>

#use wml::debian::security



</dl>
