<define-tag pagetitle>DSA-4711-1 coturn</define-tag>
<define-tag report_date>2020-6-29</define-tag>
<define-tag secrefs>CVE-2020-4067 CVE-2020-6061 CVE-2020-6062 Bug#951876</define-tag>
<define-tag packages>coturn</define-tag>
<define-tag isvulnerable>yes</define-tag>
<define-tag fixed>yes</define-tag>
<define-tag fixed-section>no</define-tag>

#use wml::debian::security



</dl>
