<define-tag pagetitle>DLA-2691-1 libgcrypt20</define-tag>
<define-tag report_date>2021-6-24</define-tag>
<define-tag secrefs>CVE-2021-33560</define-tag>
<define-tag packages>libgcrypt20</define-tag>
<define-tag isvulnerable>yes</define-tag>
<define-tag fixed>yes</define-tag>
<define-tag fixed-section>no</define-tag>

#use wml::debian::security

