<define-tag pagetitle>DLA-2716-1 pillow</define-tag>
<define-tag report_date>2021-07-22</define-tag>
<define-tag secrefs>CVE-2020-35653 CVE-2021-25290 CVE-2021-28676 CVE-2021-28677 CVE-2021-34552 Bug##991293 Bug##989062</define-tag>
<define-tag packages>pillow</define-tag>
<define-tag isvulnerable>yes</define-tag>
<define-tag fixed>yes</define-tag>
<define-tag fixed-section>no</define-tag>

#use wml::debian::security

