<define-tag pagetitle>DLA-1101-1 emacs23</define-tag>
<define-tag report_date>2017-9-21</define-tag>
<define-tag secrefs>CVE-2017-14482</define-tag>
<define-tag packages>emacs23</define-tag>
<define-tag isvulnerable>yes</define-tag>
<define-tag fixed>yes</define-tag>
<define-tag fixed-section>no</define-tag>

#use wml::debian::security

