<define-tag pagetitle>DLA-793-1 opus</define-tag>
<define-tag report_date>2017-1-22</define-tag>
<define-tag secrefs>CVE-2017-0381 Bug#851612</define-tag>
<define-tag packages>opus</define-tag>
<define-tag isvulnerable>yes</define-tag>
<define-tag fixed>yes</define-tag>
<define-tag fixed-section>no</define-tag>

#use wml::debian::security

