<define-tag pagetitle>DLA-1185-1 sam2p</define-tag>
<define-tag report_date>2017-11-22</define-tag>
<define-tag secrefs>CVE-2017-16663</define-tag>
<define-tag packages>sam2p</define-tag>
<define-tag isvulnerable>yes</define-tag>
<define-tag fixed>yes</define-tag>
<define-tag fixed-section>no</define-tag>

#use wml::debian::security

