<define-tag pagetitle>DLA-968-1 libpodofo</define-tag>
<define-tag report_date>2017-5-30</define-tag>
<define-tag secrefs>CVE-2017-6840 CVE-2017-6842 CVE-2017-6843 CVE-2017-6847 CVE-2017-6848 CVE-2017-7378 CVE-2017-7380 CVE-2017-7381 CVE-2017-7382 CVE-2017-7383 Bug#861557 Bug#861564 Bug#859330 Bug#859329</define-tag>
<define-tag packages>libpodofo</define-tag>
<define-tag isvulnerable>yes</define-tag>
<define-tag fixed>yes</define-tag>
<define-tag fixed-section>no</define-tag>

#use wml::debian::security

