<define-tag pagetitle>DLA-928-1 libsndfile</define-tag>
<define-tag report_date>2017-4-29</define-tag>
<define-tag secrefs>CVE-2015-7805 CVE-2017-7585 CVE-2017-7586 CVE-2017-7741 CVE-2017-7742 Bug#860255</define-tag>
<define-tag packages>libsndfile</define-tag>
<define-tag isvulnerable>yes</define-tag>
<define-tag fixed>yes</define-tag>
<define-tag fixed-section>no</define-tag>

#use wml::debian::security

