<define-tag pagetitle>DLA-1160-1 wordpress</define-tag>
<define-tag report_date>2017-11-4</define-tag>
<define-tag secrefs>CVE-2017-16510 Bug#880528</define-tag>
<define-tag packages>wordpress</define-tag>
<define-tag isvulnerable>yes</define-tag>
<define-tag fixed>yes</define-tag>
<define-tag fixed-section>no</define-tag>

#use wml::debian::security

