<define-tag pagetitle>DLA-972-1 openldap</define-tag>
<define-tag report_date>2017-6-1</define-tag>
<define-tag secrefs>CVE-2017-9287 Bug##863563</define-tag>
<define-tag packages>openldap</define-tag>
<define-tag isvulnerable>yes</define-tag>
<define-tag fixed>yes</define-tag>
<define-tag fixed-section>no</define-tag>

#use wml::debian::security

