<define-tag pagetitle>DLA-1199-1 thunderbird</define-tag>
<define-tag report_date>2017-12-9</define-tag>
<define-tag secrefs>CVE-2017-7826 CVE-2017-7828 CVE-2017-7830</define-tag>
<define-tag packages>thunderbird</define-tag>
<define-tag isvulnerable>yes</define-tag>
<define-tag fixed>yes</define-tag>
<define-tag fixed-section>no</define-tag>

#use wml::debian::security

