<define-tag pagetitle>DLA-960-1 imagemagick</define-tag>
<define-tag report_date>2017-5-29</define-tag>
<define-tag secrefs>CVE-2014-8354 CVE-2014-8355 CVE-2014-8562 CVE-2014-8716 CVE-2014-9841 CVE-2015-8900 CVE-2015-8901 CVE-2015-8902 CVE-2015-8903 CVE-2017-7941 CVE-2017-7943 CVE-2017-8343 CVE-2017-8344 CVE-2017-8345 CVE-2017-8346 CVE-2017-8347 CVE-2017-8348 CVE-2017-8349 CVE-2017-8350 CVE-2017-8351 CVE-2017-8352 CVE-2017-8353 CVE-2017-8354 CVE-2017-8355 CVE-2017-8356 CVE-2017-8357 CVE-2017-8765 CVE-2017-8830 CVE-2017-9098 CVE-2017-9141 CVE-2017-9142 CVE-2017-9143 CVE-2017-9144 Bug#767240 Bug#767240 Bug#768494 Bug#773834 Bug#860734 Bug#860736 Bug#862572 Bug#862574</define-tag>
<define-tag packages>imagemagick</define-tag>
<define-tag isvulnerable>yes</define-tag>
<define-tag fixed>yes</define-tag>
<define-tag fixed-section>no</define-tag>

#use wml::debian::security

