<define-tag pagetitle>DLA-2246-1 xawtv</define-tag>
<define-tag report_date>2020-06-12</define-tag>
<define-tag secrefs>CVE-2020-13696 Bug#962221</define-tag>
<define-tag packages>xawtv</define-tag>
<define-tag isvulnerable>yes</define-tag>
<define-tag fixed>yes</define-tag>
<define-tag fixed-section>no</define-tag>

#use wml::debian::security

