<define-tag pagetitle>DLA-2265-1 mailman</define-tag>
<define-tag report_date>2020-06-30</define-tag>
<define-tag secrefs>CVE-2020-15011</define-tag>
<define-tag packages>mailman</define-tag>
<define-tag isvulnerable>yes</define-tag>
<define-tag fixed>yes</define-tag>
<define-tag fixed-section>no</define-tag>

#use wml::debian::security

