<define-tag pagetitle>DLA-2323-1 linux-4.19</define-tag>
<define-tag report_date>2020-08-12</define-tag>
<define-tag secrefs>CVE-2019-18814 CVE-2019-18885 CVE-2019-20810 CVE-2020-10766 CVE-2020-10767 CVE-2020-10768 CVE-2020-12655 CVE-2020-12771 CVE-2020-13974 CVE-2020-15393 Bug#958300 Bug#960493 Bug#962254 Bug#963493 Bug#964153 Bug#964480 Bug#965365</define-tag>
<define-tag packages>linux-4.19</define-tag>
<define-tag isvulnerable>yes</define-tag>
<define-tag fixed>yes</define-tag>
<define-tag fixed-section>no</define-tag>

#use wml::debian::security

