<define-tag pagetitle>DLA-2456-1 python3.5</define-tag>
<define-tag report_date>2020-11-18</define-tag>
<define-tag secrefs>CVE-2019-20907 CVE-2020-26116</define-tag>
<define-tag packages>python3.5</define-tag>
<define-tag isvulnerable>yes</define-tag>
<define-tag fixed>yes</define-tag>
<define-tag fixed-section>no</define-tag>

#use wml::debian::security

