<define-tag pagetitle>DLA-2242-1 linux-4.9</define-tag>
<define-tag report_date>2020-06-10</define-tag>
<define-tag secrefs>CVE-2019-2182 CVE-2019-5108 CVE-2019-19319 CVE-2019-19462 CVE-2019-19768 CVE-2019-20806 CVE-2019-20811 CVE-2020-0543 CVE-2020-2732 CVE-2020-8428 CVE-2020-8647 CVE-2020-8648 CVE-2020-8649 CVE-2020-9383 CVE-2020-10711 CVE-2020-10732 CVE-2020-10751 CVE-2020-10757 CVE-2020-10942 CVE-2020-11494 CVE-2020-11565 CVE-2020-11608 CVE-2020-11609 CVE-2020-11668 CVE-2020-12114 CVE-2020-12464 CVE-2020-12652 CVE-2020-12653 CVE-2020-12654 CVE-2020-12770 CVE-2020-13143 Bug#952660</define-tag>
<define-tag packages>linux-4.9</define-tag>
<define-tag isvulnerable>yes</define-tag>
<define-tag fixed>yes</define-tag>
<define-tag fixed-section>no</define-tag>

#use wml::debian::security

