<define-tag pagetitle>DLA-1515-1 hylafax</define-tag>
<define-tag report_date>2018-9-22</define-tag>
<define-tag secrefs>CVE-2018-17141</define-tag>
<define-tag packages>hylafax</define-tag>
<define-tag isvulnerable>yes</define-tag>
<define-tag fixed>yes</define-tag>
<define-tag fixed-section>no</define-tag>

#use wml::debian::security

