<define-tag pagetitle>DLA-1301-1 tomcat7</define-tag>
<define-tag report_date>2018-3-6</define-tag>
<define-tag secrefs>CVE-2018-1304 CVE-2018-1305</define-tag>
<define-tag packages>tomcat7</define-tag>
<define-tag isvulnerable>yes</define-tag>
<define-tag fixed>yes</define-tag>
<define-tag fixed-section>no</define-tag>

#use wml::debian::security

