<define-tag pagetitle>DLA-1519-1 python2.7</define-tag>
<define-tag report_date>2018-9-25</define-tag>
<define-tag secrefs>CVE-2017-1000158 CVE-2018-1060 CVE-2018-1061 CVE-2018-1000</define-tag>
<define-tag packages>python2.7</define-tag>
<define-tag isvulnerable>yes</define-tag>
<define-tag fixed>yes</define-tag>
<define-tag fixed-section>no</define-tag>

#use wml::debian::security

