<define-tag pagetitle>DLA-1602-1 nsis</define-tag>
<define-tag report_date>2018-11-30</define-tag>
<define-tag secrefs>CVE-2015-9267 CVE-2015-9268</define-tag>
<define-tag packages>nsis</define-tag>
<define-tag isvulnerable>yes</define-tag>
<define-tag fixed>yes</define-tag>
<define-tag fixed-section>no</define-tag>

#use wml::debian::security

