<define-tag pagetitle>DLA-1265-1 krb5</define-tag>
<define-tag report_date>2018-1-31</define-tag>
<define-tag secrefs>CVE-2013-1418 CVE-2014-5351 CVE-2014-5353 CVE-2014-5355 CVE-2016-3119 CVE-2016-3120 Bug#728845 Bug#762479 Bug#773226 Bug#778647 Bug#819468 Bug#832572</define-tag>
<define-tag packages>krb5</define-tag>
<define-tag isvulnerable>yes</define-tag>
<define-tag fixed>yes</define-tag>
<define-tag fixed-section>no</define-tag>

#use wml::debian::security

