<define-tag pagetitle>DLA-1621-1 c3p0</define-tag>
<define-tag report_date>2018-12-28</define-tag>
<define-tag secrefs>CVE-2018-20433 Bug#917257</define-tag>
<define-tag packages>c3p0</define-tag>
<define-tag isvulnerable>yes</define-tag>
<define-tag fixed>yes</define-tag>
<define-tag fixed-section>no</define-tag>

#use wml::debian::security

