<define-tag pagetitle>DLA-1494-1 gdm3</define-tag>
<define-tag report_date>2018-9-5</define-tag>
<define-tag secrefs>CVE-2018-14424</define-tag>
<define-tag packages>gdm3</define-tag>
<define-tag isvulnerable>yes</define-tag>
<define-tag fixed>yes</define-tag>
<define-tag fixed-section>no</define-tag>

#use wml::debian::security

