<define-tag pagetitle>DLA-1355-1 mysql-5.5</define-tag>
<define-tag report_date>2018-4-19</define-tag>
<define-tag secrefs>CVE-2018-2755 CVE-2018-2761 CVE-2018-2771 CVE-2018-2773 CVE-2018-2781 CVE-2018-2813 CVE-2018-2817 CVE-2018-2818 CVE-2018-2819</define-tag>
<define-tag packages>mysql-5.5</define-tag>
<define-tag isvulnerable>yes</define-tag>
<define-tag fixed>yes</define-tag>
<define-tag fixed-section>no</define-tag>

#use wml::debian::security

