<define-tag pagetitle>DSA-4567-1 dpdk</define-tag>
<define-tag report_date>2019-11-12</define-tag>
<define-tag secrefs>CVE-2019-14818</define-tag>
<define-tag packages>dpdk</define-tag>
<define-tag isvulnerable>yes</define-tag>
<define-tag fixed>yes</define-tag>
<define-tag fixed-section>no</define-tag>

#use wml::debian::security



</dl>
