<define-tag pagetitle>DLA-1931-1 libgcrypt20</define-tag>
<define-tag report_date>2019-09-24</define-tag>
<define-tag secrefs>CVE-2019-13627</define-tag>
<define-tag packages>libgcrypt20</define-tag>
<define-tag isvulnerable>yes</define-tag>
<define-tag fixed>yes</define-tag>
<define-tag fixed-section>no</define-tag>

#use wml::debian::security
