<define-tag pagetitle>DLA-1923-1 ansible</define-tag>
<define-tag report_date>2019-09-16</define-tag>
<define-tag secrefs>CVE-2015-3908 CVE-2015-6240 CVE-2018-10875 CVE-2019-10156 Bug#930065</define-tag>
<define-tag packages>ansible</define-tag>
<define-tag isvulnerable>yes</define-tag>
<define-tag fixed>yes</define-tag>
<define-tag fixed-section>no</define-tag>

#use wml::debian::security

