<define-tag pagetitle>DLA-1632-1 libsndfile</define-tag>
<define-tag report_date>2019-1-10</define-tag>
<define-tag secrefs>CVE-2018-19758 Bug#917416</define-tag>
<define-tag packages>libsndfile</define-tag>
<define-tag isvulnerable>yes</define-tag>
<define-tag fixed>yes</define-tag>
<define-tag fixed-section>no</define-tag>

#use wml::debian::security

