<define-tag pagetitle>DLA-695-1 spip</define-tag>
<define-tag report_date>2016-11-2</define-tag>
<define-tag secrefs>CVE-2016-7980 CVE-2016-7981 CVE-2016-7982 CVE-2016-7998 CVE-2016-7999</define-tag>
<define-tag packages>spip</define-tag>
<define-tag isvulnerable>yes</define-tag>
<define-tag fixed>yes</define-tag>
<define-tag fixed-section>no</define-tag>

#use wml::debian::security

