<define-tag pagetitle>DLA-719-1 lynx-cur</define-tag>
<define-tag report_date>2016-11-24</define-tag>
<define-tag secrefs>CVE-2016-9179</define-tag>
<define-tag packages>lynx-cur</define-tag>
<define-tag isvulnerable>yes</define-tag>
<define-tag fixed>yes</define-tag>
<define-tag fixed-section>no</define-tag>

#use wml::debian::security

