<define-tag pagetitle>DLA-615-1 icu</define-tag>
<define-tag report_date>2016-9-8</define-tag>
<define-tag secrefs>CVE-2016-6293</define-tag>
<define-tag packages>icu</define-tag>
<define-tag isvulnerable>yes</define-tag>
<define-tag fixed>yes</define-tag>
<define-tag fixed-section>no</define-tag>

#use wml::debian::security

