<define-tag pagetitle>DLA-524-1 squidguard</define-tag>
<define-tag report_date>2016-6-22</define-tag>
<define-tag secrefs>CVE-2015-8936</define-tag>
<define-tag packages>squidguard</define-tag>
<define-tag isvulnerable>yes</define-tag>
<define-tag fixed>yes</define-tag>
<define-tag fixed-section>no</define-tag>

#use wml::debian::security

