<define-tag pagetitle>DLA-502-1 graphicsmagick</define-tag>
<define-tag report_date>2016-6-2</define-tag>
<define-tag secrefs>CVE-2016-5118 Bug#825800</define-tag>
<define-tag packages>graphicsmagick</define-tag>
<define-tag isvulnerable>yes</define-tag>
<define-tag fixed>yes</define-tag>
<define-tag fixed-section>no</define-tag>

#use wml::debian::security

